{
  "properties": {
    "metals": [
      {
        "key": "nickel",
        "value": 1
      },
      {
        "key": "cobalt",
        "value": 1
      },
      {
        "key": "lithium",
        "value": 1
      },
      {
        "key": "copper",
        "value": 1
      }
    ],
    "grade": 0
  },
  "description": "Very Poor Battery",
  "image": "ipfs://QmPNzRaPevZiwPHsJeiJzjheX5ETAJCvzsf2ynvCzoFcpB",
  "name": "Crap"
}

